<?xml version="1.0" encoding="utf-8"?>
<!-- Generator: Adobe Illustrator 18.0.0, SVG Export Plug-In . SVG Version: 6.00 Build 0)  -->
<!DOCTYPE svg PUBLIC "-//W3C//DTD SVG 1.1//EN" "http://www.w3.org/Graphics/SVG/1.1/DTD/svg11.dtd">
<svg version="1.1" id="Layer_1" xmlns="http://www.w3.org/2000/svg" xmlns:xlink="http://www.w3.org/1999/xlink" x="0px" y="0px"
	 viewBox="499.5 499.5 25 25" enable-background="new 499.5 499.5 25 25" xml:space="preserve">
<path fill="#C69C6D" d="M507.8,507.4h-3.3c-1.7,0-1.7,1.7-1.7,1.7h6.7C509.5,509.1,509.5,507.4,507.8,507.4z M507.8,510.8h-3.3
	c-1.7,0-1.7,1.7-1.7,1.7h6.7C509.5,512.4,509.5,510.8,507.8,510.8z M507.8,514.1h-3.3c-1.7,0-1.7,1.7-1.7,1.7h6.7
	C509.5,515.8,509.5,514.1,507.8,514.1z M519.5,507.4h-3.3c-1.7,0-1.7,1.7-1.7,1.7h6.7C521.2,509.1,521.2,507.4,519.5,507.4z
	 M519.5,510.8h-3.3c-1.7,0-1.7,1.7-1.7,1.7h6.7C521.2,512.4,521.2,510.8,519.5,510.8z M519.5,514.1h-3.3c-1.7,0-1.7,1.7-1.7,1.7h6.7
	C521.2,515.8,521.2,514.1,519.5,514.1z M515.3,503.2c-1.7,0-3.3,1.7-3.3,1.7s-1.7-1.7-3.3-1.7c-4.2,0-9.2,1.7-9.2,1.7v15.8l11.7-0.8
	c0,0,0,0.8,0.8,0.8c0.8,0,0.8-0.8,0.8-0.8l11.7,0.8v-15.8C524.5,504.9,519.5,503.2,515.3,503.2z M511.2,519.1c0,0,0-1.7-1.7-1.7
	c-5,0-8.3,1.7-8.3,1.7v-13.3c0,0,3.3-0.8,6.7-0.8c1.7,0,3.3,1.7,3.3,1.7V519.1z M522.8,518.2c0,0-2.5-0.8-8.3-0.8
	c-1.6,0-1.7,1.7-1.7,1.7v-12.5c0,0,1.7-1.7,3.3-1.7c3.3,0,6.7,1.7,6.7,1.7V518.2z"/>
</svg>
