<?xml version="1.0" encoding="utf-8"?>
<!-- Generator: Adobe Illustrator 18.0.0, SVG Export Plug-In . SVG Version: 6.00 Build 0)  -->
<!DOCTYPE svg PUBLIC "-//W3C//DTD SVG 1.1//EN" "http://www.w3.org/Graphics/SVG/1.1/DTD/svg11.dtd">
<svg version="1.1" id="Layer_1" xmlns="http://www.w3.org/2000/svg" xmlns:xlink="http://www.w3.org/1999/xlink" x="0px" y="0px"
	 viewBox="0 0 25.7 46.6" enable-background="new 0 0 25.7 46.6" xml:space="preserve">
<g>
	<polyline fill="none" stroke="#EFEFEF" stroke-miterlimit="10" points="24.2,1.5 2.3,23.3 24.2,45.1 	"/>
	<polygon fill="none" stroke="#EFEFEF" stroke-miterlimit="10" points="23.5,45.8 1,23.3 23.5,0.8 24.8,2.2 3.7,23.3 24.8,44.4 	"/>
</g>
</svg>
